{
  "port" : 3000,
  "maintenance" : false,
  "services" : {
    "this" : {
      "host" : "hops.alpha2.livspace.com",
      "port" :  80
    },
    "bouncer" : {
      "host" : "bouncer.alpha2.livspace.com",
      "port" :  80,
      "client_id" : "IMS",
      "client_secret" : "6fe0b170-eb2e-426a-aa7b-bb0b496ead19"
    },
    "axle" : {
      "host" : "axle",
      "port" : 80,
      "client_id" : "StarMSFe-G4DsKI",
      "client_secret" : "2SXhLxG7prabkWl2rHQptbpIyt8XH9yg"
    }
  },
  "wkhtmltopdf" : {
    "zoom"          : 4.5,
    "dpi"           : 300,
    "footerCenter"  : "[page]/[topage]"
  },
  "constants" : {
    "HOME_SERVICE_CATEGORY_ID" : 140,
    "HOME_SERVICE_PREMIUM_FEATURE_ID": 294
  }
}

