{
    "atp": {
    "endpoint": "http://axle/atp",
    "headers": {
          "Content-Type":"application/json",
          "X-Client-Id": "Platform-Stage",
          "X-Client-Secret": "q12qKlQeVkPZZnuXnhXkZe0rMjn5ERXD",
          "X-Requested-By": 1
      }
    },
    "alvis" : {
        "endpoint": "http://alvis.alpha2.livspace.com",
        "headers": {
            "Content-Type": "application/json",
            "X-Request-Origin": "Canvas"
        }
    },
    "web" : {
        "endpoint": "http://livspace-web",
        "headers": {
            "X-Auth-Token": "U8sk79RrNn9E3Zd28GZw2272PVgdUH9xmOW0Hy9G2rdxmMCVOotZJ"
        }
    },
    "cms" : {
        "endpoint": "http://axle/proxy/cms",
        "headers": {
            "Content-Type":"application/json",
            "X-Client-Id": "Platform-Stage",
            "X-Client-Secret": "q12qKlQeVkPZZnuXnhXkZe0rMjn5ERXD",
            "X-Requested-By": 1
        }
    },
     "cauldron": {
         "endpoint": "https://api.alpha2.livspace.com/cauldron",
         "headers": {
            "Authorization": "Basic U3Rhck1TRmUtRzREc0tJOjJTWGhMeEc3cHJhYmtXbDJySFFwdGJwSXl0OFhIOXln",
            "X-Requested-By": 0, "Content-Type": "application/json"
        }
    },
    "cmsapi" : {
        "endpoint": "http://cmsapi",
        "headers": {
            "X-Auth-Token": "VVTsND3Kl77W1NpJc9sKsl60m3ViiKi9DQgJ"
        }
    },
    "cmsproxy" : {
        "endpoint": "http://axle/proxy/cms",
        "headers": {
            "Content-Type":"application/json",
            "X-Client-Id": "Platform-Stage",
            "X-Client-Secret": "q12qKlQeVkPZZnuXnhXkZe0rMjn5ERXD",
            "X-Requested-By": 1
        }
    },
    "daakiya": {
        "endpoint": "http://axle/daakiya",
        "headers": {
            "Content-Type":"application/json",
            "X-Client-Id": "Platform-Stage",
            "X-Client-Secret": "q12qKlQeVkPZZnuXnhXkZe0rMjn5ERXD",
            "X-Requested-By": 1
        }
    },
    "content" : {
        "endpoint": "http://content/api/v1",
        "headers": {
            "X-Auth-Token": "l77W1NpJVVTsND3K3ViiKi9DQc9sKsl60mgJ"
        }
    },
    "design2D" : {
        "endpoint": "http://content",
        "headers": {
            "X-Auth-Token": "l77W1NpJVVTsND3K3ViiKi9DQc9sKsl60mgJ"
        }
    },
    "launchpad": {
        "endpoint": "http://launchpad-backend",
        "headers": {
            "X-USER-TOKEN": "ZjH6d1+iP5QdQ0okKFo75HYHoEgdmJi25mtXssfZNytkGyR/OlRAj6NGUrBp7WSshfgxJd4Za+DiFUwlphaNLkHDCZ47Trdl0KtzdAJkmAPWKqcOSjqhjdxphAet4dFhbNTqE0KhFD7z5tckkqRqgatNG8PAiNgZo0wwrjY6IZEOSCeH6Jgu5xNSBNSMm+eE"
        }
    },
    "launchpad_cluster" : {
        "endpoint": "http://lp-cluster",
        "timeout": 60000
    },
    "lp-cluster" : {
        "endpoint": "http://lp-cluster",
        "timeout": 60000
    },

    "vmsops" : {
        "endpoint": "http://axle/proxy/vms",
        "headers": {
            "Content-Type":"application/json",
            "X-Client-Id": "Platform-Stage",
            "X-Client-Secret": "q12qKlQeVkPZZnuXnhXkZe0rMjn5ERXD",
            "X-Requested-By": 1
        }
    },
    "apollo" : {
        "endpoint": "http://apollo",
        "headers": {
            "X-USER-TOKEN": "ZjH6d1+iP5QdQ0okKFo75HYHoEgdmJi25mtXssfZNytkGyR/OlRAj6NGUrBp7WSshfgxJd4Za+DiFUwlphaNLkHDCZ47Trdl0KtzdAJkmAPWKqcOSjqhjdxphAet4dFhbNTqE0KhFD7z5tckkqRqgatNG8PAiNgZo0wwrjY6IZEOSCeH6Jgu5xNSBNSMm+eE"
        }
    },
    "calendar" :{
        "endpoint": "http://calendar",
        "headers": {
            "X-Requested-By": "SAAS",
            "X-Request-Id": "4e98c0bc-b4d7-4c9a-ae87-7ff1a9a2fd3f"
        }
    },
    "livhome" :{
        "endpoint": "http://lp-cluster/liv-home"
    },

    "bo" :{
        "endpoint": "http://backoffice",
        "timeout": 60000,
        "headers": {
            "X-Auth-Token": "8cQ904440221g0kWq8wE7N68T48DcfMr"
        }
    },
    "boqx" : {
        "endpoint": "http://carbon",
        "headers": {
            "X-Auth-Token": "VQmcwb8rlxRAr2KqpAXYo1XZ8ZCscDqh"
        }
    },
    "bouncer" : {
        "endpoint": "http://bouncer",
        "headers": {
            "X-CLIENT-ID": "LSSTUDIO",
            "X-CLIENT-SECRET": "55c9947e-8930-44a9-8dd3-5329cfc05ef0"
        }
    },

    "chat": {
        "endpoint": "http://chat",
        "headers": {
            "X-Auth-Token": "8cQ904440221g0kWq8wE7N68T48DcfMr"
        }
    },

    "vms": {
        "endpoint": "http://axle.alpha2.livspace.com/vms",
        "headers": {
          "X-Auth-Token": "JQc9slK7VTsND3K9sl60mgJiiKiV7W1NpJV3"
        }
    },

    "fms" : {
        "endpoint": "http://fms",
        "headers": {
            "X-Auth-Token": "JJi3K9Qc9slKsl60mgiK7VTsNDiV7W1NpJV3",
            "X-Requested-By": 1,
            "X-Request-Id": "aapo--763450981-dd45"
        }
    },
    "inventory" : {
        "endpoint": "http://livspace-web",
        "headers": {
            "X-Auth-Token": "U8sk79RrNn9E3Zd28GZw2272PVgdUH9xmOW0Hy9G2rdxmMCVOotZJ"
        }
    },
    "livhome_backend": {
        "endpoint": "http://livhome-backend",
        "headers": {
            "X-USER-TOKEN": "ZjH6d1+iP5QdQ0okKFo75HYHoEgdmJi25mtXssfZNytkGyR/OlRAj6NGUrBp7WSshfgxJd4Za+DiFUwlphaNLkHDCZ47Trdl0KtzdAJkmAPWKqcOSjqhjdxphAet4dFhbNTqE0KhFD7z5tckkqRqgatNG8PAiNgZo0wwrjY6IZEOSCeH6Jgu5xNSBNSMm+eE"
        }
    },
    "lego" : {
        "endpoint": "http://lego/",
        "headers": {
            "X-CLIENT-SECRET" : "6ee38134-64c0-4095-af8a-38f05e69b0bd",
            "X-CLIENT-ID": "LAUNCHPAD"
        }
    },
    "grasp": {
        "endpoint": "http://axle.alpha2.livspace.com/proxy/grasp",
        "headers": {
            "Content-Type": "application/json",
            "X-Client-Id": "Platform-Stage",
            "X-Client-Secret": "q12qKlQeVkPZZnuXnhXkZe0rMjn5ERXD",
            "X-Requested-By": 1
        }
    },
    "legion": {
        "endpoint": "http://axle/proxy/legion",
        "headers": {
            "Content-Type": "application/json",
            "X-Client-Id": "Platform-Stage",
            "X-Client-Secret": "q12qKlQeVkPZZnuXnhXkZe0rMjn5ERXD",
            "X-Request-Origin": "Platform"
        }
    },
    "optic": {
        "endpoint": "http://axle/optic",
        "headers": {
            "Content-Type": "application/json",
            "Authorization": "Basic U3Rhck1TRmUtRzREc0tJOjJTWGhMeEc3cHJhYmtXbDJySFFwdGJwSXl0OFhIOXln",
            "X-Requested-By": 0
        }
    },
    "housing": {
        "endpoint": "http://axle/housing",
        "headers": {
            "Content-Type":"application/json",
            "Authorization": "Basic U3Rhck1TRmUtRzREc0tJOjJTWGhMeEc3cHJhYmtXbDJySFFwdGJwSXl0OFhIOXln",
            "X-Requested-By": 0
        }
    },
    "oms": {
        "endpoint": "http://axle/proxy/oms",
        "headers": {
            "Content-Type":"application/json",
            "X-Requested-By": 1,
            "X-Client-Id" : "Platform-Stage",
            "X-Client-Secret": "q12qKlQeVkPZZnuXnhXkZe0rMjn5ERXD"
        }
    },
    "axle": {
        "endpoint": "http://axle.alpha2.livspace.com/proxy",
        "headers": {
            "Content-Type": "application/json",
            "X-Request-Origin": "Canvas",
            "X-Client-Id": "Platform-Stage",
            "X-Client-Secret": "q12qKlQeVkPZZnuXnhXkZe0rMjn5ERXD"
        }
    },
    "civitas" : {
        "endpoint": "http://axle.alpha2.livspace.com/proxy/civitas",
        "headers": {
            "Content-Type": "application/json",
            "X-Request-Origin": "Canvas",
            "X-Client-Id": "Platform-Stage",
            "X-Client-Secret": "q12qKlQeVkPZZnuXnhXkZe0rMjn5ERXD",
            "X-Auth-Token": "Ksl60mgiKNpslJiJV3K9Qc97VTJsNDiV7W13",
            "X-Requested-By": 0
        }
    },
    "sparrow" : {
        "endpoint": "http://axle/sparrow",
        "headers": {
            "Content-Type": "application/json",
            "X-Client-Id": "Platform-Stage",
            "X-Client-Secret": "q12qKlQeVkPZZnuXnhXkZe0rMjn5ERXD",
            "X-Requested-By": 0
        }
    },
    "webbackend" : {
        "endpoint": "http://axle.alpha2.livspace.com/livspace-web-backend",
        "headers": {
            "Content-Type":"application/json",
            "X-Client-Id": "Platform-Stage",
            "X-Client-Secret": "q12qKlQeVkPZZnuXnhXkZe0rMjn5ERXD",
            "X-Requested-By": 1
        }
    },
   "kratos": {
        "endpoint": "http://api.alpha2.livspace.com/kratos",
        "headers": {
            "Content-Type": "application/json",
            "Authorization": "Basic U3Rhck1TRmUtRzREc0tJOjJTWGhMeEc3cHJhYmtXbDJySFFwdGJwSXl0OFhIOXln"
        }
    },
    "homeimprovementservice" : {
        "endpoint": "http://axle.alpha2.livspace.com/proxy/homeservice",
        "headers": {
            "Content-Type": "application/json",
            "X-Client-Id": "Platform-Stage",
            "X-Client-Secret": "q12qKlQeVkPZZnuXnhXkZe0rMjn5ERXD",
            "X-Requested-By": 0
        }
    },
    "kamar-taj": {
       "endpoint": "http://api.alpha2.livspace.com/kamar-taj",
       "headers": {
        "Content-Type": "application/json",
        "X-Client-Id": "Platform-Stage",
        "X-Client-Secret": "q12qKlQeVkPZZnuXnhXkZe0rMjn5ERXD"
      }
   },
       "horreum": {
      "endpoint": "http://horreum.alpha.livspace.com",
      "headers": {
        "Content-Type": "application/json"
      }
    },
    "kronos": {
       "endpoint": "http://axle/kronos-temp",
       "headers": {
        "Content-Type": "application/json",
        "Authorization": "Basic U3Rhck1TRmUtRzREc0tJOjJTWGhMeEc3cHJhYmtXbDJySFFwdGJwSXl0OFhIOXln",
        "X-Requested-By": 0
        }
   },
    "aida": {
     "endpoint": "http://axle/aida/api",
     "headers": {
       "X-Client-Id": "Platform-Stage",
       "X-Client-Secret": "q12qKlQeVkPZZnuXnhXkZe0rMjn5ERXD",
       "X-Requested-By": 0,
       "Content-Type": "application/json"
    }
  },
   "kang": {
    "endpoint": "http://kang/api",
    "headers": {
      "X-Client-Id": "Platform-Stage",
      "X-Client-Secret": "q12qKlQeVkPZZnuXnhXkZe0rMjn5ERXD",
      "Content-Type": "application/json"
    }
  },
  "sparrow": {
      "endpoint": "http://axle.alpha2.livspace.com/sparrow",
      "headers": {
          "Content-Type": "application/json",
          "X-Request-Origin": "Canvas",
          "X-Client-Id": "StarMSFe-G4DsKI",
          "X-Client-Secret": "2SXhLxG7prabkWl2rHQptbpIyt8XH9yg",
          "X-Requested-By": 0
      }
  },
  "horreum": {
    "endpoint": "http://horreum.alpha2.livspace.com",
    "headers": {
      "Content-Type": "application/json"
   }
  },
  "attachmentservice": {
    "endpoint": "http://axle.alpha2.livspace.com/attachmentservice",
    "headers": {
      "X-Request-Origin": "Canvas",
      "X-Client-Id": "StarMSFe-G4DsKI",
      "X-Client-Secret": "2SXhLxG7prabkWl2rHQptbpIyt8XH9yg",
      "X-Requested-By": 0
    }
  },
  "launchpad-backend": {
    "endpoint": "http://axle.alpha2.livspace.com/launchpad-backend",
    "headers": {
      "Content-Type": "application/json",
      "X-Requested-By": 0,
      "Authorization": "Basic U3Rhck1TRmUtRzREc0tJOjJTWGhMeEc3cHJhYmtXbDJySFFwdGJwSXl0OFhIOXln"
    }
  },
  "enigma": {
    "endpoint": "http://axle.alpha2.livspace.com/enigma",
    "headers": {
      "Authorization": "Basic U3Rhck1TRmUtRzREc0tJOjJTWGhMeEc3cHJhYmtXbDJySFFwdGJwSXl0OFhIOXln",
      "Content-Type": "application/json"
    }
  },
  "proteus": {
      "endpoint": "http://proteus.alpha2.livspace.com",
      "headers": {
        "Content-Type": "application/json",
        "X-Requested-By": 0
    }
  },
   "odin": {
        "endpoint": "http://axle.alpha2.livspace.com/odin",
        "headers": {
          "Content-Type": "application/json",
          "Authorization": "Basic U3Rhck1TRmUtRzREc0tJOjJTWGhMeEc3cHJhYmtXbDJySFFwdGJwSXl0OFhIOXln",
          "X-Requested-By": 0
        }
    },
    "shazam": {
        "endpoint": "http://axle.alpha2.livspace.com/shazam",
        "headers": {
            "Content-Type": "application/json",
            "Authorization": "Basic U3Rhck1TRmUtRzREc0tJOjJTWGhMeEc3cHJhYmtXbDJySFFwdGJwSXl0OFhIOXln",
            "X-Requested-By": 0
        } 
    },
    "galactus": {
        "endpoint": "http://api.alpha2.livspace.com/galactus",
        "headers": {
          "Content-Type": "application/json",
          "Authorization": "Basic U3Rhck1TRmUtRzREc0tJOjJTWGhMeEc3cHJhYmtXbDJySFFwdGJwSXl0OFhIOXln",
          "X-Requested-By": 0
        }
    },
    "template": {
        "endpoint": "http://api.alpha2.livspace.com/template",
        "headers": {
          "Content-Type": "application/json",
          "Authorization": "Basic U3Rhck1TRmUtRzREc0tJOjJTWGhMeEc3cHJhYmtXbDJySFFwdGJwSXl0OFhIOXln",
          "X-Requested-By": 0
        }
    },
    "seeker": {
        "endpoint": "http://api.alpha2.livspace.com/seeker",
        "headers": {
            "Content-Type": "application/json",
            "Authorization": "Basic U3Rhck1TRmUtRzREc0tJOjJTWGhMeEc3cHJhYmtXbDJySFFwdGJwSXl0OFhIOXln",
            "X-Requested-By": 0
        }
    }
}